^C:\USERS\RITCH\SOURCE\REPOS\FOREX_PROFIT_CALC_CPP\FOREX_PROFIT_CALC_CPP\X64\DEBUG\JSONFILECREATOR.OBJ|C:\USERS\RITCH\SOURCE\REPOS\FOREX_PROFIT_CALC_CPP\FOREX_PROFIT_CALC_CPP\X64\DEBUG\MAIN.OBJ|C:\USERS\RITCH\SOURCE\REPOS\FOREX_PROFIT_CALC_CPP\FOREX_PROFIT_CALC_CPP\X64\DEBUG\PORTFOLIOTOTALSSTACK.OBJ|C:\USERS\RITCH\SOURCE\REPOS\FOREX_PROFIT_CALC_CPP\FOREX_PROFIT_CALC_CPP\X64\DEBUG\SIMULATOR.OBJ|C:\USERS\RITCH\SOURCE\REPOS\FOREX_PROFIT_CALC_CPP\FOREX_PROFIT_CALC_CPP\X64\DEBUG\STATSTOTALSSTACK.OBJ|C:\USERS\RITCH\SOURCE\REPOS\FOREX_PROFIT_CALC_CPP\FOREX_PROFIT_CALC_CPP\X64\DEBUG\TEST.OBJ
C:\USERS\RITCH\SOURCE\REPOS\FOREX_PROFIT_CALC_CPP\X64\DEBUG\FOREX_PROFIT_CALC_CPP.ILK
C:\USERS\RITCH\SOURCE\REPOS\FOREX_PROFIT_CALC_CPP\X64\DEBUG\FOREX_PROFIT_CALC_CPP.EXE
C:\USERS\RITCH\SOURCE\REPOS\FOREX_PROFIT_CALC_CPP\X64\DEBUG\FOREX_PROFIT_CALC_CPP.PDB
