^C:\USERS\RITCH\SOURCE\REPOS\FOREX_PROFIT_CALC_CPP\FOREX_PROFIT_CALC_CPP\X64\DEBUG\JSONFILECREATOR.OBJ|C:\USERS\RITCH\SOURCE\REPOS\FOREX_PROFIT_CALC_CPP\FOREX_PROFIT_CALC_CPP\X64\DEBUG\MAIN.OBJ|C:\USERS\RITCH\SOURCE\REPOS\FOREX_PROFIT_CALC_CPP\FOREX_PROFIT_CALC_CPP\X64\DEBUG\PORTFOLIOTOTALSSTACK.OBJ|C:\USERS\RITCH\SOURCE\REPOS\FOREX_PROFIT_CALC_CPP\FOREX_PROFIT_CALC_CPP\X64\DEBUG\SIMULATOR.OBJ|C:\USERS\RITCH\SOURCE\REPOS\FOREX_PROFIT_CALC_CPP\FOREX_PROFIT_CALC_CPP\X64\DEBUG\STATSTOTALSSTACK.OBJ|C:\USERS\RITCH\SOURCE\REPOS\FOREX_PROFIT_CALC_CPP\FOREX_PROFIT_CALC_CPP\X64\DEBUG\TEST.OBJ
C:\PROGRAM FILES (X86)\WINDOWS KITS\10\LIB\10.0.18362.0\UM\X64\KERNEL32.LIB
C:\PROGRAM FILES (X86)\WINDOWS KITS\10\LIB\10.0.18362.0\UM\X64\USER32.LIB
C:\PROGRAM FILES (X86)\WINDOWS KITS\10\LIB\10.0.18362.0\UM\X64\GDI32.LIB
C:\PROGRAM FILES (X86)\WINDOWS KITS\10\LIB\10.0.18362.0\UM\X64\WINSPOOL.LIB
C:\PROGRAM FILES (X86)\WINDOWS KITS\10\LIB\10.0.18362.0\UM\X64\COMDLG32.LIB
C:\PROGRAM FILES (X86)\WINDOWS KITS\10\LIB\10.0.18362.0\UM\X64\ADVAPI32.LIB
C:\PROGRAM FILES (X86)\WINDOWS KITS\10\LIB\10.0.18362.0\UM\X64\SHELL32.LIB
C:\PROGRAM FILES (X86)\WINDOWS KITS\10\LIB\10.0.18362.0\UM\X64\OLE32.LIB
C:\PROGRAM FILES (X86)\WINDOWS KITS\10\LIB\10.0.18362.0\UM\X64\OLEAUT32.LIB
C:\PROGRAM FILES (X86)\WINDOWS KITS\10\LIB\10.0.18362.0\UM\X64\UUID.LIB
C:\PROGRAM FILES (X86)\WINDOWS KITS\10\LIB\10.0.18362.0\UM\X64\ODBC32.LIB
C:\PROGRAM FILES (X86)\WINDOWS KITS\10\LIB\10.0.18362.0\UM\X64\ODBCCP32.LIB
C:\USERS\RITCH\SOURCE\REPOS\FOREX_PROFIT_CALC_CPP\FOREX_PROFIT_CALC_CPP\X64\DEBUG\TEST.OBJ
C:\USERS\RITCH\SOURCE\REPOS\FOREX_PROFIT_CALC_CPP\FOREX_PROFIT_CALC_CPP\X64\DEBUG\JSONFILECREATOR.OBJ
C:\USERS\RITCH\SOURCE\REPOS\FOREX_PROFIT_CALC_CPP\FOREX_PROFIT_CALC_CPP\X64\DEBUG\MAIN.OBJ
C:\USERS\RITCH\SOURCE\REPOS\FOREX_PROFIT_CALC_CPP\FOREX_PROFIT_CALC_CPP\X64\DEBUG\PORTFOLIOTOTALSSTACK.OBJ
C:\USERS\RITCH\SOURCE\REPOS\FOREX_PROFIT_CALC_CPP\FOREX_PROFIT_CALC_CPP\X64\DEBUG\SIMULATOR.OBJ
C:\USERS\RITCH\SOURCE\REPOS\FOREX_PROFIT_CALC_CPP\FOREX_PROFIT_CALC_CPP\X64\DEBUG\STATSTOTALSSTACK.OBJ
C:\WINDOWS\GLOBALIZATION\SORTING\SORTDEFAULT.NLS
C:\PROGRAM FILES (X86)\MICROSOFT VISUAL STUDIO\2019\COMMUNITY\VC\TOOLS\MSVC\14.27.29110\LIB\X64\MSVCRTD.LIB
C:\PROGRAM FILES (X86)\MICROSOFT VISUAL STUDIO\2019\COMMUNITY\VC\TOOLS\MSVC\14.27.29110\LIB\X64\OLDNAMES.LIB
C:\PROGRAM FILES (X86)\MICROSOFT VISUAL STUDIO\2019\COMMUNITY\VC\TOOLS\MSVC\14.27.29110\LIB\X64\MSVCPRTD.LIB
C:\PROGRAM FILES (X86)\MICROSOFT VISUAL STUDIO\2019\COMMUNITY\VC\TOOLS\MSVC\14.27.29110\LIB\X64\VCRUNTIMED.LIB
C:\PROGRAM FILES (X86)\WINDOWS KITS\10\LIB\10.0.18362.0\UCRT\X64\UCRTD.LIB
C:\PROGRAM FILES (X86)\MICROSOFT VISUAL STUDIO\2019\COMMUNITY\VC\TOOLS\MSVC\14.27.29110\BIN\HOSTX86\X64\CVTRES.EXE
C:\WINDOWS\SYSTEM32\TZRES.DLL
